DECODIFICADOR/simulation/qsim/decodificador.msim.vcd
$comment
	File created using the following command:
		vcd file decodificador.msim.vcd -direction
$end
$date
	Tue Mar 05 18:59:09 2024
$end
$version
	ModelSim Version 10.1d
$end
$timescale
	1ps
$end
$scope module decodificador_vlg_vec_tst $end
$var reg 1 ! bcdA $end
$var reg 1 " bcdB $end
$var reg 1 # bcdC $end
$var reg 1 $ bcdD $end
$var wire 1 % SEG [6] $end
$var wire 1 & SEG [5] $end
$var wire 1 ' SEG [4] $end
$var wire 1 ( SEG [3] $end
$var wire 1 ) SEG [2] $end
$var wire 1 * SEG [1] $end
$var wire 1 + SEG [0] $end
$var wire 1 , sampler $end
$scope module i1 $end
$var wire 1 - gnd $end
$var wire 1 . vcc $end
$var wire 1 / unknown $end
$var tri1 1 0 devclrn $end
$var tri1 1 1 devpor $end
$var tri1 1 2 devoe $end
$var wire 1 3 SEG[0]~output_o $end
$var wire 1 4 SEG[1]~output_o $end
$var wire 1 5 SEG[2]~output_o $end
$var wire 1 6 SEG[3]~output_o $end
$var wire 1 7 SEG[4]~output_o $end
$var wire 1 8 SEG[5]~output_o $end
$var wire 1 9 SEG[6]~output_o $end
$var wire 1 : bcdD~input_o $end
$var wire 1 ; bcdB~input_o $end
$var wire 1 < bcdA~input_o $end
$var wire 1 = bcdC~input_o $end
$var wire 1 > Mux6~0_combout $end
$var wire 1 ? Mux5~0_combout $end
$var wire 1 @ Mux4~0_combout $end
$var wire 1 A Mux3~0_combout $end
$var wire 1 B Mux2~0_combout $end
$var wire 1 C Mux1~0_combout $end
$var wire 1 D Mux0~0_combout $end
$upscope $end
$upscope $end
$enddefinitions $end
#0
$dumpvars
0!
0"
0#
0$
1+
0*
0)
0(
0'
0&
0%
x,
0-
1.
x/
10
11
12
13
04
05
06
07
08
09
0:
0;
0<
0=
0>
0?
0@
0A
0B
0C
0D
$end
#10000
1!
1<
0,
1>
03
0+
#15000
1"
1;
1,
0>
1D
1C
1B
1A
1@
1?
13
19
18
17
16
15
14
1+
1%
1&
1'
1(
1)
1*
#20000
1#
0!
1=
0<
0,
1>
0B
0A
0@
0?
03
07
06
05
04
0+
0'
0(
0)
0*
#25000
1$
1:
1,
0>
0D
0C
1A
1@
1?
13
09
08
16
15
14
1+
0%
0&
1(
1)
1*
#30000
0"
1!
0;
1<
0,
1D
1C
1B
19
18
17
1%
1&
1'
#40000
0#
0!
0=
0<
1,
0C
0B
08
07
0&
0'
#45000
1"
1;
0,
1>
0D
1C
0A
0?
03
09
18
06
04
0+
0%
1&
0(
0*
#50000
0$
1!
0:
1<
1,
0>
1D
1B
1A
1?
13
19
17
16
14
1+
1%
1'
1(
1*
#60000
1#
0"
0!
1=
0;
0<
0,
1>
0D
0C
0A
0@
03
09
08
06
05
0+
0%
0&
0(
0)
#70000
1!
1<
1,
0>
1D
1C
1A
1@
13
19
18
16
15
1+
1%
1&
1(
1)
#75000
1$
1"
1:
1;
0,
#80000
0#
0!
0=
0<
1,
1>
0D
0B
0A
0?
03
09
07
06
04
0+
0%
0'
0(
0*
#90000
0"
1!
0;
1<
0,
0C
1A
08
16
0&
1(
#100000
0$
1#
0!
0:
1=
0<
1,
1B
0A
0@
1?
17
06
05
14
1'
0(
0)
1*
#105000
1"
1;
0,
1D
1C
0B
0?
19
18
07
04
1%
1&
0'
0*
#110000
1!
1<
1,
0>
1B
1A
1@
1?
13
17
16
15
14
1+
1'
1(
1)
1*
#120000
0#
0"
0!
0=
0;
0<
0,
0D
0C
0B
0A
0@
0?
09
08
07
06
05
04
0%
0&
0'
0(
0)
0*
#125000
1$
1:
1,
1D
1A
1@
1?
19
16
15
14
1%
1(
1)
1*
#130000
1!
1<
0,
1>
0D
0?
03
09
04
0+
0%
0*
#135000
1"
1;
1,
0>
1D
1C
1B
1?
13
19
18
17
14
1+
1%
1&
1'
1*
#140000
1#
0!
1=
0<
0,
0D
0C
0B
09
08
07
0%
0&
0'
#150000
0$
0"
1!
0:
0;
1<
1,
1D
1C
1B
19
18
17
1%
1&
1'
#160000
0#
0!
0=
0<
0,
0D
0C
0B
0A
0@
0?
09
08
07
06
05
04
0%
0&
0'
0(
0)
0*
#165000
1"
1;
1,
1>
1D
1A
1@
03
19
16
15
0+
1%
1(
1)
#170000
1!
1<
0,
0>
1C
1B
1?
13
18
17
14
1+
1&
1'
1*
#175000
1$
1:
1,
#180000
1#
0"
0!
1=
0;
0<
0,
1>
0D
0C
0B
0A
03
09
08
07
06
0+
0%
0&
0'
0(
#190000
1!
1<
1,
0>
1D
1C
1B
1A
13
19
18
17
16
1+
1%
1&
1'
1(
#195000
1"
1;
0,
#200000
0$
0#
0!
0:
0=
0<
1,
1>
0C
0B
0?
03
08
07
04
0+
0&
0'
0*
#210000
0"
1!
0;
1<
0,
0D
0A
0@
09
06
05
0%
0(
0)
#220000
1#
0!
1=
0<
1,
1B
1?
17
14
1'
1*
#225000
1$
1"
1:
1;
0,
0>
0B
1A
1@
13
07
16
15
1+
0'
1(
1)
#230000
1!
1<
1,
1D
1C
1B
19
18
17
1%
1&
1'
#240000
0#
0"
0!
0=
0;
0<
0,
0C
0B
08
07
0&
0'
#250000
0$
1!
0:
1<
1,
1>
0D
0A
0@
0?
03
09
06
05
04
0+
0%
0(
0)
0*
#255000
1"
1;
0,
0>
1D
1C
1B
1A
1@
1?
13
19
18
17
16
15
14
1+
1%
1&
1'
1(
1)
1*
#260000
1#
0!
1=
0<
1,
1>
0B
0A
0@
0?
03
07
06
05
04
0+
0'
0(
0)
0*
#270000
0"
1!
0;
1<
0,
0>
1B
1A
1@
1?
13
17
16
15
14
1+
1'
1(
1)
1*
#275000
1$
1:
1,
#280000
0#
0!
0=
0<
0,
0C
0B
08
07
0&
0'
#285000
1"
1;
1,
1>
0D
1C
0A
0?
03
09
18
06
04
0+
0%
1&
0(
0*
#290000
1!
1<
0,
0>
1D
1B
1A
1?
13
19
17
16
14
1+
1%
1'
1(
1*
#300000
0$
1#
0"
0!
0:
1=
0;
0<
1,
1>
0D
0C
0A
0@
03
09
08
06
05
0+
0%
0&
0(
0)
#310000
1!
1<
0,
0>
1D
1C
1A
1@
13
19
18
16
15
1+
1%
1&
1(
1)
#315000
1"
1;
1,
#320000
0#
0!
0=
0<
0,
1>
0C
0B
0?
03
08
07
04
0+
0&
0'
0*
#325000
1$
1:
1,
0D
1C
0A
09
18
06
0%
1&
0(
#330000
0"
1!
0;
1<
0,
0C
1A
08
16
0&
1(
#340000
1#
0!
1=
0<
1,
0A
1?
06
14
0(
1*
#345000
1"
1;
0,
0>
1A
13
16
1+
1(
#350000
0$
1!
0:
1<
1,
1D
1C
1B
19
18
17
1%
1&
1'
#360000
0#
0"
0!
0=
0;
0<
0,
0D
0C
0B
0A
0@
0?
09
08
07
06
05
04
0%
0&
0'
0(
0)
0*
#370000
1!
1<
1,
1>
03
0+
#375000
1$
1"
1:
1;
0,
0>
1D
1C
1B
1A
1@
1?
13
19
18
17
16
15
14
1+
1%
1&
1'
1(
1)
1*
#380000
1#
0!
1=
0<
1,
0D
0C
0B
09
08
07
0%
0&
0'
#390000
0"
1!
0;
1<
0,
1D
1C
1B
19
18
17
1%
1&
1'
#400000
0$
0#
0!
0:
0=
0<
1,
0D
0C
0B
0A
0@
0?
09
08
07
06
05
04
0%
0&
0'
0(
0)
0*
#405000
1"
1;
0,
1>
1D
1A
1@
03
19
16
15
0+
1%
1(
1)
#410000
1!
1<
1,
0>
1C
1B
1?
13
18
17
14
1+
1&
1'
1*
#420000
1#
0"
0!
1=
0;
0<
0,
1>
0D
0C
0A
0@
03
09
08
06
05
0+
0%
0&
0(
0)
#425000
1$
1:
1,
0B
1@
07
15
0'
1)
#430000
1!
1<
0,
0>
1D
1C
1B
1A
13
19
18
17
16
1+
1%
1&
1'
1(
#435000
1"
1;
1,
#440000
0#
0!
0=
0<
0,
1>
0D
0B
0A
0?
03
09
07
06
04
0+
0%
0'
0(
0*
#450000
0$
0"
1!
0:
0;
1<
1,
0C
0@
08
05
0&
0)
#460000
1#
0!
1=
0<
0,
1B
1?
17
14
1'
1*
#465000
1"
1;
1,
1D
1C
0B
0?
19
18
07
04
1%
1&
0'
0*
#470000
1!
1<
0,
0>
1B
1A
1@
1?
13
17
16
15
14
1+
1'
1(
1)
1*
#475000
1$
1:
1,
#480000
0#
0"
0!
0=
0;
0<
0,
0C
0B
08
07
0&
0'
#490000
1!
1<
1,
1>
0D
0?
03
09
04
0+
0%
0*
#495000
1"
1;
0,
0>
1D
1C
1B
1?
13
19
18
17
14
1+
1%
1&
1'
1*
#500000
0$
1#
0!
0:
1=
0<
1,
1>
0B
0A
0@
0?
03
07
06
05
04
0+
0'
0(
0)
0*
#510000
0"
1!
0;
1<
0,
0>
1B
1A
1@
1?
13
17
16
15
14
1+
1'
1(
1)
1*
#520000
0#
0!
0=
0<
1,
0D
0C
0B
0A
0@
0?
09
08
07
06
05
04
0%
0&
0'
0(
0)
0*
#525000
1$
1"
1:
1;
0,
1>
1C
1@
03
18
15
0+
1&
1)
#530000
1!
1<
1,
0>
1D
1B
1A
1?
13
19
17
16
14
1+
1%
1'
1(
1*
#540000
1#
0"
0!
1=
0;
0<
0,
1>
0D
0C
0B
0A
03
09
08
07
06
0+
0%
0&
0'
0(
#550000
0$
1!
0:
1<
1,
0>
1D
1C
1B
1A
13
19
18
17
16
1+
1%
1&
1'
1(
#555000
1"
1;
0,
#560000
0#
0!
0=
0<
1,
1>
0C
0B
0?
03
08
07
04
0+
0&
0'
0*
#570000
0"
1!
0;
1<
0,
0D
0A
0@
09
06
05
0%
0(
0)
#575000
1$
1:
1,
1A
1@
16
15
1(
1)
#580000
1#
0!
1=
0<
0,
0A
1?
06
14
0(
1*
#585000
1"
1;
1,
0>
1A
13
16
1+
1(
#590000
1!
1<
0,
1D
1C
1B
19
18
17
1%
1&
1'
#600000
0$
0#
0"
0!
0:
0=
0;
0<
1,
0D
0C
0B
0A
0@
0?
09
08
07
06
05
04
0%
0&
0'
0(
0)
0*
#610000
1!
1<
0,
1>
03
0+
#615000
1"
1;
1,
0>
1D
1C
1B
1A
1@
1?
13
19
18
17
16
15
14
1+
1%
1&
1'
1(
1)
1*
#620000
1#
0!
1=
0<
0,
1>
0B
0A
0@
0?
03
07
06
05
04
0+
0'
0(
0)
0*
#625000
1$
1:
1,
0>
0D
0C
1A
1@
1?
13
09
08
16
15
14
1+
0%
0&
1(
1)
1*
#630000
0"
1!
0;
1<
0,
1D
1C
1B
19
18
17
1%
1&
1'
#640000
0#
0!
0=
0<
1,
0C
0B
08
07
0&
0'
#645000
1"
1;
0,
1>
0D
1C
0A
0?
03
09
18
06
04
0+
0%
1&
0(
0*
#650000
0$
1!
0:
1<
1,
0>
1D
1B
1A
1?
13
19
17
16
14
1+
1%
1'
1(
1*
#660000
1#
0"
0!
1=
0;
0<
0,
1>
0D
0C
0A
0@
03
09
08
06
05
0+
0%
0&
0(
0)
#670000
1!
1<
1,
0>
1D
1C
1A
1@
13
19
18
16
15
1+
1%
1&
1(
1)
#675000
1$
1"
1:
1;
0,
#680000
0#
0!
0=
0<
1,
1>
0D
0B
0A
0?
03
09
07
06
04
0+
0%
0'
0(
0*
#690000
0"
1!
0;
1<
0,
0C
1A
08
16
0&
1(
#700000
0$
1#
0!
0:
1=
0<
1,
1B
0A
0@
1?
17
06
05
14
1'
0(
0)
1*
#705000
1"
1;
0,
1D
1C
0B
0?
19
18
07
04
1%
1&
0'
0*
#710000
1!
1<
1,
0>
1B
1A
1@
1?
13
17
16
15
14
1+
1'
1(
1)
1*
#720000
0#
0"
0!
0=
0;
0<
0,
0D
0C
0B
0A
0@
0?
09
08
07
06
05
04
0%
0&
0'
0(
0)
0*
#725000
1$
1:
1,
1D
1A
1@
1?
19
16
15
14
1%
1(
1)
1*
#730000
1!
1<
0,
1>
0D
0?
03
09
04
0+
0%
0*
#735000
1"
1;
1,
0>
1D
1C
1B
1?
13
19
18
17
14
1+
1%
1&
1'
1*
#740000
1#
0!
1=
0<
0,
0D
0C
0B
09
08
07
0%
0&
0'
#750000
0$
0"
1!
0:
0;
1<
1,
1D
1C
1B
19
18
17
1%
1&
1'
#760000
0#
0!
0=
0<
0,
0D
0C
0B
0A
0@
0?
09
08
07
06
05
04
0%
0&
0'
0(
0)
0*
#765000
1"
1;
1,
1>
1D
1A
1@
03
19
16
15
0+
1%
1(
1)
#770000
1!
1<
0,
0>
1C
1B
1?
13
18
17
14
1+
1&
1'
1*
#775000
1$
1:
1,
#780000
1#
0"
0!
1=
0;
0<
0,
1>
0D
0C
0B
0A
03
09
08
07
06
0+
0%
0&
0'
0(
#790000
1!
1<
1,
0>
1D
1C
1B
1A
13
19
18
17
16
1+
1%
1&
1'
1(
#795000
1"
1;
0,
#800000
0$
0#
0!
0:
0=
0<
1,
1>
0C
0B
0?
03
08
07
04
0+
0&
0'
0*
#810000
0"
1!
0;
1<
0,
0D
0A
0@
09
06
05
0%
0(
0)
#820000
1#
0!
1=
0<
1,
1B
1?
17
14
1'
1*
#825000
1$
1"
1:
1;
0,
0>
0B
1A
1@
13
07
16
15
1+
0'
1(
1)
#830000
1!
1<
1,
1D
1C
1B
19
18
17
1%
1&
1'
#840000
0#
0"
0!
0=
0;
0<
0,
0C
0B
08
07
0&
0'
#850000
0$
1!
0:
1<
1,
1>
0D
0A
0@
0?
03
09
06
05
04
0+
0%
0(
0)
0*
#855000
1"
1;
0,
0>
1D
1C
1B
1A
1@
1?
13
19
18
17
16
15
14
1+
1%
1&
1'
1(
1)
1*
#860000
1#
0!
1=
0<
1,
1>
0B
0A
0@
0?
03
07
06
05
04
0+
0'
0(
0)
0*
#870000
0"
1!
0;
1<
0,
0>
1B
1A
1@
1?
13
17
16
15
14
1+
1'
1(
1)
1*
#875000
1$
1:
1,
#880000
0#
0!
0=
0<
0,
0C
0B
08
07
0&
0'
#885000
1"
1;
1,
1>
0D
1C
0A
0?
03
09
18
06
04
0+
0%
1&
0(
0*
#890000
1!
1<
0,
0>
1D
1B
1A
1?
13
19
17
16
14
1+
1%
1'
1(
1*
#900000
0$
1#
0"
0!
0:
1=
0;
0<
1,
1>
0D
0C
0A
0@
03
09
08
06
05
0+
0%
0&
0(
0)
#910000
1!
1<
0,
0>
1D
1C
1A
1@
13
19
18
16
15
1+
1%
1&
1(
1)
#915000
1"
1;
1,
#920000
0#
0!
0=
0<
0,
1>
0C
0B
0?
03
08
07
04
0+
0&
0'
0*
#925000
1$
1:
1,
0D
1C
0A
09
18
06
0%
1&
0(
#930000
0"
1!
0;
1<
0,
0C
1A
08
16
0&
1(
#940000
1#
0!
1=
0<
1,
0A
1?
06
14
0(
1*
#945000
1"
1;
0,
0>
1A
13
16
1+
1(
#950000
0$
1!
0:
1<
1,
1D
1C
1B
19
18
17
1%
1&
1'
#960000
0#
0"
0!
0=
0;
0<
0,
0D
0C
0B
0A
0@
0?
09
08
07
06
05
04
0%
0&
0'
0(
0)
0*
#970000
1!
1<
1,
1>
03
0+
#975000
1$
1"
1:
1;
0,
0>
1D
1C
1B
1A
1@
1?
13
19
18
17
16
15
14
1+
1%
1&
1'
1(
1)
1*
#980000
1#
0!
1=
0<
1,
0D
0C
0B
09
08
07
0%
0&
0'
#990000
0"
1!
0;
1<
0,
1D
1C
1B
19
18
17
1%
1&
1'
